[npc]
Seasond_Sailor
up
395
16
22
NULL
0
-1
0
false
false
false
[/npc]
[npc]
NULL
down
0
25
13
NULL
0
-1
1
false
false
false
[/npc]
[warp]
23
11
15
16
-45
49
0
[/warp]
[warp]
17
11
22
31
-40
-14
0
[/warp]
[warp]
27
11
22
31
-40
-13
0
[/warp]