[npc]
Underground Visitor
down
122
6
9
NULL
0
-1
0,1
false
false
false
[/npc]
[warp]
7
15
9
6
-5
0
0
[/warp]
[warp]
6
15
9
6
-5
0
0
[/warp]
[warp]
8
15
9
6
-5
0
0
[/warp]
[warp]
9
15
9
6
-5
0
0
[/warp]
[warp]
9
7
3
2
-31
-37
0
[/warp]
