[npc]
NULL
down
0
3
4
NULL
0
-1
0
false
false
true
[/npc]
[npc]
Shop Keeper
right
185
2
4
NULL
0
-1
0
false
false
true
[/npc]
[warp]
4
9
13
15
-2
-4
0
[/warp]
[warp]
5
9
13
15
-2
-4
0
[/warp]
[warp]
7
2
54
10
-41
-37
0
[/warp]