[npc]
Seasond_Sailor
up
395
21
101
NULL
0
-1
0
false
false
false
[/npc]
[warp]
21
90
21
141
-39
12
0
[/warp]
[warp]
21
142
21
91
-39
12
0
[/warp]

[warp]
21
127
14
161
-39
12
0
[/warp]
[warp]
14
161
21
127
-39
12
0
[/warp]

[warp]
26
163
18
263
-39
12
0
[/warp]
[warp]
18
263
26
163
-39
12
0
[/warp]

[warp]
35
183
37
285
-39
12
0
[/warp]
[warp]
37
285
35
183
-39
12
0
[/warp]