[npc]
NULL
down
0
7
12
NULL
0
-1
0
false
false
false
[/npc]
[npc]
NULL
down
0
19
12
NULL
0
-1
1
false
false
false
[/npc]
[npc]
NULL
down
0
23
22
NULL
0
-1
2,3,4
false
false
false
[/npc]
[npc]
NULL
down
0
35
18
NULL
0
-1
5
false
false
false
[/npc]
[npc]
NULL
down
0
36
12
NULL
0
-1
6
false
false
false
[/npc]
[npc]
NULL
down
0
52
11
NULL
0
-1
7,8,9,10
false
false
false
[/npc]
[warp]
38
5
5
7
-49
-49
0
[/warp]
[warp]
30
12
15
15
-49
-46
0
[/warp]
[warp]
23
40
21
29
-50
-50
0
[/warp]
[warp]
37
18
18
21
-50
-38
0
[/warp]
[warp]
17
6
4
8
-31
-34
0
[/warp]
[warp]
55
11
16
15
-33
-40
0
[/warp]
[warp]
19
21
23
40
-50
-50
0
[/warp]