[warp]
11
74
23
73
-28
1
0
[/warp]
[warp]
63
12
54
66
-28
1
0
[/warp]
[warp]
47
41
21
14
-42
2
0
[/warp]
[warp]
21
15
47
42
-42
2
0
[/warp]
[warp]
28
1
55
8
-42
2
0
[/warp]
[warp]
55
9
28
2
-42
2
0
[/warp]