[npc]
Seasond_Sailor
up
395
10
43
NULL
0
-1
0
false
false
false
[/npc]
[npc]
Sarah
right
374
25
40
NULL
0
-1
2
false
false
false
[/npc]
[/npc]
[npc]
Sailor
down
395
28
40
NULL
0
-1
3
false
false
false
[/npc]
[npc]
Shop Keeper
right
185
28
37
NULL
0
-1
1
FALSE
FALSE
TRUE
[/npc]
[npc]
NULL
down
0
29
42
NULL
0
-1
4
FALSE
FALSE
FALSE
[/npc]
[npc]
NULL
down
0
40
44
NULL
0
-1
5
FALSE
FALSE
FALSE
[/npc]
[warp]
21
41
15
16
-48
49
0
[/warp]
[warp]
32
43
22
31
-40
-23
0
[/warp]
[warp]
39
43
22
31
-40
-22
0
[/warp]
[warp]
38
10
22
31
-40
-21
0
[/warp]


