[npc]
Youngster Johnson
right
353
26
26
Ekans,33,Ekans,33,Raticate,34
3
-1
0
false
false
false
[/npc]
[npc]
Scientist Ted
right
344
32
19
Electrode,29,Weezing,29
2
-1
1
false
false
false
[/npc]
[npc]
Burglar Lewis
right
314
19
21
Growlithe,34,Ponyta,34
2
-1
2
false
false
false
[/npc]
[npc]
Scientist Ivan
down
344
27
9
Magnemite,34,Electrode,34
2
-1
3
false
false
false
[/npc]
[warp]
33
27
22
26
-49
-15
0
[/warp]