[npc]
NULL
down
0
3
9
NULL
0
-1
0,1,2,3
false
false
false
[/npc]
[npc]
NULL
down
0
4
9
NULL
0
-1
0,4,5,6
false
false
false
[/npc]
[npc]
NULL
down
0
5
9
NULL
0
-1
0,7,8,9
false
false
false
[/npc]
[npc]
NULL
down
0
6
9
NULL
0
-1
0,10,11
false
false
false
[/npc]
[npc]
Schoolboy
down
263
3
20
NULL
0
-1
12
false
false
false
[/npc]
[npc]
Schoolboy
down
261
4
20
NULL
0
-1
13
false
false
false
[/npc]
[npc]
Schoolboy
up
264
5
16
NULL
0
-1
14,15,16
false
false
false
[/npc]
[npc]
Schoolboy
up
279
3
14
NULL
0
-1
17,18
false
false
false
[/npc]
[warp]
4
23
30
18
-3
-2
0
[/warp]
