[npc]
NULL
down
0
13
29
NULL
0
-1
0
false
false
false
[/npc]
[npc]
NULL
down
0
18
23
NULL
0
-1
1
false
false
false
[/npc]
[npc]
NULL
down
0
22
17
NULL
0
-1
2
false
false
false
[/npc]
[npc]
NULL
down
0
30
31
NULL
0
-1
3
false
false
false
[/npc]
[npc]
NULL
down
0
12
16
NULL
0
-1
4
false
false
false
[/npc]
[npc]
NULL
down
0
4
17
NULL
0
-1
5
false
false
false
[/npc]
[npc]
NULL
down
0
30
7
NULL
0
-1
6,7
false
false
false
[/npc]
[npc]
NULL
down
0
21
8
NULL
0
-1
8,9,10
false
false
false
[/npc]
[npc]
NULL
down
0
12
4
NULL
0
-1
11,12
false
false
false
[/npc]
[npc]
NULL
down
0
8
6
NULL
0
-1
0
false
false
false
[/npc]
[warp]
15
28
15
15
-49
-41
0
[/warp]
[warp]
24
25
8
8
-31
-33
0
[/warp]
[warp]
15
22
4
16
-33
-33
0
[/warp]
[warp]
29
29
4
7
-48
-48
0
[/warp]
[warp]
29
6
4
7
-34
-34
0
[/warp]
[warp]
25
8
16
84
-31
-35
0
[/warp]
[warp]
10
29
7
14
-31
-36
0
[/warp]
[warp]
9
5
7
14
-31
-38
0
[/warp]
[warp]
10
15
10
12
-31
-39
0
[/warp]
[warp]
15
7
3
7
-31
-40
0
[/warp]
[warp]
5
15
2
8
-31
-41
0
[/warp]
[warp]
5
27
3
7
-31
-43
0
[/warp]
[warp]
32
21
3
7
-31
-44
0
[/warp]
[warp]
35
8
3
7
-31
-45
0
[/warp]
