[npc]
NULL
down
0
53
7
NULL
0
-1
0
false
false
false
[/npc]
[npc]
NULL
down
0
37
7
NULL
0
-1
4,5,6
false
false
false
[/npc]
[npc]
Bird Keeper Jacob
left
269
46
14
Spearow,26,Spearow,26,Fearow,26,Spearow,26
4
-1
1
false
false
false
[/npc]
[npc]
Bird Keeper Wilton
right
269
38
12
Spearow,29,Fearow,29
2
-1
2
false
false
false
[/npc]
[npc]
Bird Keeper Ramiro
right
269
40
15
Dodrio,34
1
-1
3
false
false
false
[/npc]