[warp]
27
48
29
3
2
-46
0
[/warp]
[warp]
7
21
4
9
2
-45
0
[/warp]
[warp]
4
10
7
22
2
-45
0
[/warp]
[warp]
10
3
14
15
2
-44
0
[/warp]
[warp]
25
3
21
15
2
-44
0
[/warp]