[npc]
NULL
down
0
21
7
NULL
0
-1
0
false
false
false
[/npc]
[npc]
NPC
right
50
14
6
NULL
0
-1
3,4
false
false
false
[/npc]
[npc]
NULL
down
75
17
14
NULL
0
-1
5
false
false
false
[/npc]
[warp]
25
5
15
16
1
49
0
[/warp]
[warp]
9
5
5
22
-47
47
0
[/warp]
[warp]
24
14
5
7
24
49
0
[/warp]
[warp]
20
14
14
26
-45
-37
0
[/warp]
[warp]
33
14
12
28
-45
-38
0
[/warp]
[warp]
10
13
24
22
-45
-39
0
[/warp]
[warp]
37
5
16
23
-45
-40
0
[/warp]
