[warp]
51
64
12
93
-45
48
0
[/warp]
[warp]
28
79
5
7
6
-50
0
[/warp]
[warp]
17
66
15
16
6
-49
0
[/warp]
[warp]
58
96
4
60
41
-42
0
[/warp]
[warp]
58
95
4
60
41
-42
0
[/warp]
[warp]
3
96
66
25
39
-42
0
[/warp]
[warp]
3
95
66
25
39
-42
0
[/warp]
[warp]
9
104
12
5
40
-41
0
[/warp]
[warp]
10
104
12
5
40
-41
0
[/warp]
[warp]
11
104
12
5
40
-41
0
[/warp]
[warp]
22
66
10
8
-38
-24
0
[/warp]
[warp]
23
79
8
9
-38
-34
0
[/warp]
[warp]
36
67
22
13
-38
-19
0
[/warp]
[warp]
46
79
22
13
-38
-20
0
[/warp]
[warp]
12
79
12
18
-41
-20
0
[/warp]
[warp]
40
79
13
17
-41
-27
0
[/warp]
[warp]
30
62
21
14
-41
-30
0
[/warp]




