[warp]
27
32
40
50
31
20
0
[/warp]
[warp]
27
32
40
50
31
20
0
[/warp]
[warp]
13
20
10
43
52
2
0
[/warp]
[warp]
14
20
10
43
52
2
0
[/warp]
[warp]
20
16
15
19
51
47
0
[/warp]


